[ {
  "name" : "Common",
  "type" : "PARTIAL"
}, {
  "name" : "Login",
  "type" : "PAGE"
}, {
  "name" : "Main",
  "type" : "PAGE"
}, {
  "name" : "Page",
  "type" : "PAGE"
}, {
  "name" : "Page1",
  "type" : "PAGE"
}, {
  "name" : "header",
  "type" : "PARTIAL"
}, {
  "name" : "leftnav",
  "type" : "PARTIAL"
}, {
  "name" : "rightnav",
  "type" : "PARTIAL"
}, {
  "name" : "topnav",
  "type" : "PARTIAL"
} ]